<?xml version="1.0" encoding="utf-8"?>
<!-- Generator: Adobe Illustrator 16.0.0, SVG Export Plug-In . SVG Version: 6.00 Build 0)  -->
<!DOCTYPE svg PUBLIC "-//W3C//DTD SVG 1.1//EN" "http://www.w3.org/Graphics/SVG/1.1/DTD/svg11.dtd">
<svg version="1.1" id="Layer_1" xmlns="http://www.w3.org/2000/svg" xmlns:xlink="http://www.w3.org/1999/xlink" x="0px" y="0px"
	 width="150px" height="150px" viewBox="0 0 150 150" enable-background="new 0 0 150 150" xml:space="preserve">
<radialGradient id="SVGID_1_" cx="53.187" cy="46.96" r="116.5676" gradientTransform="matrix(0.6434 0 0 0.6434 40.7793 44.7856)" gradientUnits="userSpaceOnUse">
	<stop  offset="0" style="stop-color:#FFFFFF"/>
	<stop  offset="1" style="stop-color:#E8E8E8"/>
</radialGradient>
<circle fill="url(#SVGID_1_)" cx="75" cy="75" r="75"/>
<g>
	<path fill="#313E98" d="M91.443,27.503c-3.026,1.074-6.528,1.765-10.292,1.942c0,0,0.894,0.75,1.49,1.132s1.802,0.846,1.802,0.846
		c-2.782,0.672-5.849,1.044-9.069,1.044c-7.393,0-14.06-2.051-16.473-3.911c0,0-4.865,3.75-6.474,9.219s-1.819,10.496-1.819,10.496
		l-2.611-4.148c0.208-15.177,12.466-27.176,27.377-27.176c15.042,0,26.627,11.817,26.627,27.176l-2.302,3.657
		c0,0,0.014-8.195-2.56-12.739C94.566,30.497,91.443,27.503,91.443,27.503z"/>
	<path fill="#28286F" d="M61.951,74.428c1.393,4.71,6.699,8.221,13.048,8.221c6.35,0,11.655-3.509,13.048-8.217v-3.366
		c19.845,4.032,33.591,17.285,36.345,34.743c0.632,4.002,0.321,8.363,0.321,8.363c-12.384,6.273-28.682,9.544-49.714,9.544
		c-21.03,0-37.328-3.271-49.712-9.544c0,0-0.31-4.361,0.322-8.363c2.754-17.458,16.5-30.71,36.343-34.743V74.428z"/>
	<path fill="#B9B6DA" d="M48.463,53.912c0.926,0,1.745-0.188,2.385-0.516c0.298,1.656,0.764,3.566,1.843,5.414
		c2.181,3.727,5.551,6.922,9.261,9.294v2.961v3.362c1.393,4.71,6.699,8.221,13.048,8.221c6.35,0,11.655-3.509,13.048-8.217v-3.366
		v-2.961c3.711-2.372,7.081-5.567,9.261-9.294c1.08-1.848,1.546-3.758,1.844-5.414c0.64,0.327,1.459,0.516,2.385,0.516
		c2.709,0,4.906-2.196,4.906-4.905c0-2.711-1.732-4.885-4.441-4.885l-2.302,3.657c0,0,0.014-8.195-2.56-12.739
		c-2.573-4.543-5.696-7.537-5.696-7.537c-3.026,1.074-6.528,1.765-10.292,1.942c0,0,0.894,0.75,1.49,1.132s1.802,0.846,1.802,0.846
		c-2.782,0.672-5.849,1.044-9.069,1.044c-7.393,0-14.06-2.051-16.473-3.911c0,0-4.865,3.75-6.474,9.219s-1.819,10.496-1.819,10.496
		L50.3,47.779l0,0l-2.303-3.657c-2.709,0-4.44,2.174-4.44,4.885C43.557,51.716,45.753,53.912,48.463,53.912z"/>
	<rect x="90.961" y="104.415" fill="#313E98" width="17.799" height="4.075"/>
	<path fill="#7F7EBB" d="M74.999,72.516c-3.927,0-8.719-1.644-13.048-4.411v1.002c3.188,4.302,6.92,7.216,13.048,7.216
		c6.459,0,10.039-2.841,13.048-7.04v-1.178C83.719,70.872,78.926,72.516,74.999,72.516z"/>
</g>
<path fill="#C4197F" d="M128.97,61.101h-9.531v-9.532c0-1.064-0.863-1.927-1.929-1.927s-1.929,0.863-1.929,1.927v9.532h-9.533
	c-1.063,0-1.927,0.864-1.927,1.929s0.863,1.928,1.927,1.928h9.533v9.531c0,1.065,0.863,1.928,1.929,1.928s1.929-0.863,1.929-1.928
	v-9.531h9.531c1.066,0,1.929-0.863,1.929-1.928S130.036,61.101,128.97,61.101z"/>
<path fill="#C4197F" d="M42.032,68.719h-4.731v-4.732c0-0.528-0.429-0.957-0.958-0.957s-0.958,0.429-0.958,0.957v4.732h-4.732
	c-0.528,0-0.956,0.429-0.956,0.958c0,0.528,0.428,0.957,0.956,0.957h4.732v4.731c0,0.529,0.429,0.957,0.958,0.957
	s0.958-0.428,0.958-0.957v-4.731h4.731c0.529,0,0.957-0.429,0.957-0.957C42.989,69.148,42.562,68.719,42.032,68.719z"/>
</svg>
